Zazni Vlijter’s Website - Filtering Walkthrough
…
So now we have our data loaded in. But lets say I only want information from the general elections

filter(GA_votedemos_2016_gen, elextype == "general")

# A tibble: 159 × 70
   elexyear elextype county   county_c…¹ black…² black…³ black…⁴ black…⁵ black…⁶
      <dbl> <chr>    <chr>    <chr>        <dbl>   <dbl>   <dbl>   <dbl>   <dbl>
 1     2016 general  APPLING  001            954     393    41.2    1247     692
 2     2016 general  ATKINSON 002            396     200    50.5     527     310
 3     2016 general  BACON    003            343     106    30.9     566     267
 4     2016 general  BAKER    004            425     225    52.9     557     365
 5     2016 general  BALDWIN  005           4160    2225    53.5    6028    4078
 6     2016 general  BANKS    006            111      49    44.1      84      43
 7     2016 general  BARROW   007           2135    1059    49.6    2822    1860
 8     2016 general  BARTOW   008           2698    1181    43.8    3521    2002
 9     2016 general  BEN HILL 009           1299     578    44.5    2103    1235
10     2016 general  BERRIEN  010            481     218    45.3     634     348
# … with 149 more rows, 61 more variables: black_female_pct <dbl>,
#   black_unknown_registered <dbl>, black_unknown_voted <dbl>,
#   black_unknown_pct <dbl>, white_male_registered <dbl>,
#   white_male_voted <dbl>, white_male_pct <dbl>,
#   white_female_registered <dbl>, white_female_voted <dbl>,
#   white_female_pct <dbl>, white_unknown_registered <dbl>,
#   white_unknown_voted <dbl>, white_unknown_pct <dbl>, …
…
