Zazni Vlijter's Website – walkthrough
…
Now using the joined datasets above, come up with two groupings you find interesting or newsworthy in a particular state, and replicate the steps above them them instead.

inner_join(counties_demographics, counties_elexresults)%>%
group_by(pct_mil_veteran)%>%
summarize(averagevotes = mean(pct_r_2020))

Joining with `by = join_by(geoid, pct_d_2020, pct_r_2020, pct_d_2016,
pct_r_2016)`

# A tibble: 980 × 2
   pct_mil_veteran averagevotes
             <dbl>        <dbl>
 1            0            65.5
 2            0.82         32.5
 3            1.28         44.8
 4            1.82         50.9
 5            1.98         47.1
 6            2.04         26.3
 7            2.13         12.3
 8            2.19         31  
 9            2.2          95  
10            2.24         27  
# … with 970 more rows

inner_join(counties_demographics, counties_elexresults)%>%
group_by(pct_ed_college_all)%>%
summarize(averagevotes = mean(pct_r_2020))

Joining with `by = join_by(geoid, pct_d_2020, pct_r_2020, pct_d_2016,
pct_r_2016)`

# A tibble: 1,894 × 2
   pct_ed_college_all averagevotes
                <dbl>        <dbl>
 1               0            90.9
 2               1.48         65.5
 3               3.4          45.6
 4               5.22         62.5
 5               5.74         38.8
 6               6.56         70.4
 7               6.74         55.5
 8               6.84         78.9
 9               6.86         90.2
10               6.97         65.2
# … with 1,884 more rows

Extra credit

Up until now we’ve joined two tables together. But we actually have three tables in this project. How might we join all three together into a single table, so all the measures for each county are combined in one place? (Hint: you can do this is multiple steps, doesn’t have to be one step only.)

full_join(counties_elexresults, counties_rural_urban_suburban)%>% full_join(counties_demographics)

Joining with `by = join_by(geoid)`
Joining with `by = join_by(geoid, pct_d_2020, pct_r_2020, pct_d_2016,
pct_r_2016, county, county_name, state_code)`

# A tibble: 3,112 × 38
   geoid total…¹ democ…² repub…³ pct_d…⁴ pct_r…⁵ winne…⁶ margi…⁷ total…⁸ democ…⁹
   <chr>   <int>   <int>   <int>   <dbl>   <dbl> <chr>     <dbl>   <dbl>   <dbl>
 1 01001   27691    7503   19838    27.1    71.6 R          44.5   24973    5936
 2 01003  109351   24578   83544    22.5    76.4 R          53.9   95215   18458
 3 01005   10506    4816    5622    45.8    53.5 R           7.7   10469    4871
 4 01007    9585    1986    7525    20.7    78.5 R          57.8    8819    1874
 5 01009   27560    2640   24711     9.6    89.7 R          80.1   25588    2156
 6 01011    4611    3446    1146    74.7    24.9 D          49.8    4710    3530
 7 01013    9482    3965    5458    41.8    57.6 R          15.8    8732    3726
 8 01015   50870   15216   35101    29.9    69   R          39.1   47864   13242
 9 01017   15259    6365    8753    41.7    57.4 R          15.7   13900    5784
10 01019   12289    1624   10583    13.2    86.1 R          72.9   10733    1547
# … with 3,102 more rows, 28 more variables: republican_2016 <dbl>,
#   winner_2016 <chr>, pct_d_2016 <dbl>, pct_r_2016 <dbl>, margin_2016 <dbl>,
#   county <chr>, county_name <chr>, state_code <chr>, rural_urban <fct>,
#   state_name <chr>, pct_born_foreign <dbl>, pct_mil_veteran <dbl>,
#   pct_race_nonwhite <dbl>, pct_ed_college_all <dbl>,
#   pct_ed_college_white <dbl>, pct_ed_college_white_male <dbl>,
#   pct_ed_college_white_female <dbl>, …
…
